…
  data$residuals <- lm$residuals
  
  data
}

pvars <- vars_pack

palmerpenguins::penguins %>% 
  remove_missing() %>% 
  mutate(x = bill_length_mm, y = bill_depth_mm, predictors = pvars(sex, species)) %>% 
  select(x, y, predictors) %>% 
  compute_lm_multi()
#> Warning: Removed 11 rows containing missing values or values outside the scale
#> range.
#> # A tibble: 333 × 7
#>        x     y   sex species  yend  xend residuals
#>    <dbl> <dbl> <int>   <int> <dbl> <dbl>     <dbl>
#>  1  39.1  18.9     2       1  18.7  39.1    -0.232
#>  2  39.5  18.2     1       1  17.4  39.5    -0.799
#>  3  40.3  18.3     1       1  18    40.3    -0.349
#>  4  36.7  17.7     1       1  19.3  36.7     1.63 
#>  5  39.3  19.0     2       1  20.6  39.3     1.63 
#>  6  38.9  18.1     1       1  17.8  38.9    -0.286
#>  7  39.2  19.0     2       1  19.6  39.2     0.649
#>  8  41.1  18.5     1       1  17.6  41.1    -0.899
#>  9  38.6  18.8     2       1  21.2  38.6     2.36 
#> 10  34.6  18.1     2       1  21.1  34.6     3.01 
#> # ℹ 323 more rows
…
